{
  "general": {
    "siteDisplayName": {
      "description": "Site display name",
      "value": "World Pet Association",
      "values": null
    },
    "defaultLandingPage": {
      "description": "Default site lending page",
      "value": 4,
      "values": [
        {
          "key": "Top",
          "value": 1
        },
        {
          "key": "Recent",
          "value": 2
        },
        {
          "key": "Buyers guide",
          "value": 3
        },
        {
          "key": "Feed landing",
          "value": 4
        }
      ]
    },
    "advertiseContactEmail": {
      "description": "Email address where will comes mails from advertisement contact form",
      "value": "info+integration1@myindustrytracker.com",
      "values": null
    },
    "primarySiteColor": {
      "description": "Primary site color",
      "value": "2BAADF",
      "values": null
    },
    "secondarySiteColor": {
      "description": "Secondary site color",
      "value": "174884",
      "values": null
    }
  },
  "newsfeed": {
    "iframeProblematicSources": {
      "description": "Comma separated of company ids with problems on displaying source urls in ifarme",
      "value": "13238,13049,13641,10499,13650,12934,10740,11346,10500,10981,10842,13768,11242,10990,10447,11275,11358,11105,10753,11414,11239,13779,11280,13069,11398,13207,10985,13242,13649,11408,12945,10808,10544,10787,12947,12979,13036,10848,10723,13247,13252,13576,13662,13817,13044,10547,11248,10851,10912,11369,10557,13200,10798,13096,10428,13816,13806,10979,11126,13210,10786,11336,11356,11052,10441,10959,13362,10937,10906,13811,10529,13349,11224,11307,10873,10991,10503,10850,13437,10989,11076,13040,13108,13320,13076,10531,10986,10943,11240,13149,11362,11158,10972,11387,11364,10563,13275,13851,13801,13410,10831,13782,11366,13293,12769,11058,11031,11253,10729,10692,10452,10485,12401,11191,11180,12755,11251,11254,10489,11614,17305,10886,14610,12540,10876,10880,11256,10871,28454,35618,25081,36888,35673,26414,36202,30540,34150,29177,17226,26194,37006,30516,25429,25736,29658,19222,29193,30140,25404,35768,25472,10696,26941,35608,25422,32886,30491,10476,35643,35771,26830,33573,31797,30939,37188,35651,25307,26248,37223,31541,25395,32226,34081,31535,31834,10543,25178,27048,26369,25879,29252,36848",
      "values": null
    },
    "isArticleAutomaticApprovalEnabled": { //Approve article automatically
      "description": "Toggle NLP article approval",
      "value": true,
      "values": [
        {
          "key": "Yes",
          "value": true
        },
        {
          "key": "No",
          "value": false
        }
      ]
    },
    "minimumArticlesInMyNewsFeed": {
      "description": "",
      "value": 5,
      "values": null
    }
  },
  "analytics": {
    "excludedAgents": {
      "description": "Regular expression for excluding user-agents from google analytic",
      "value": "PingdomPageSpeed",
      "values": null
    },
    "whiteListDomains": {
      "description": "White list of domains for FeedList action",
      "value": "asp.net,inloop.com,google.com",
      "values": null
    }
  },
  "social": {
    "newsletterDigestPeriod": {
      "description": "Default newsletter digest period for new trackers. Valid values are: Weekly, Biweekly, Monthly, None.",
      "value": 1,
      "values": [
        {
          "key": "Weekly",
          "value": 1
        },
        {
          "key": "Biweekly",
          "value": 2
        },
        {
          "key": "Monthly",
          "value": 3
        },
        {
          "key": "None",
          "value": 4
        }
      ]
    },
    "facebookEnabled": {
      "description": "",
      "value": false,
      "values": [
        {
          "key": "Yes",
          "value": true
        },
        {
          "key": "No",
          "value": false
        }
      ]
    },

    "organizerTwitterLink": {
      "description": "Link to the organizer twitter",
      "value": "https://twitter.com/organazer",
      "values": null
    }
  }
}
